19

C          2.00607       -0.49415       -1.26841
C          0.68719       -0.85291       -0.57167
N         -0.26488       -1.41668       -1.55662
C          0.08413        0.38017        0.10736
H          0.82708        0.82990        0.77929
H         -0.13881        1.15201       -0.64217
C         -1.17772        0.05595        0.90925
H         -1.96881       -0.31919        0.25183
H         -0.94793       -0.70313        1.66525
C         -1.70604        1.27520        1.61270
O         -1.29663        2.41973        1.52193
O         -2.75390        0.98391        2.40824
H         -3.00894        1.84834        2.79306
O          2.96754       -0.09656       -0.41273
O          2.23750       -0.57511       -2.46566
H          0.90636       -1.63268        0.16664
H          0.19178       -2.20505       -2.02211
H         -0.38846       -0.73195       -2.30731
H          3.74163        0.08392       -0.98683
