176

 C -5.150920 1.947750 0.416950
 C -4.095290 2.799630 0.102420
 C -3.272980 3.297870 1.111640
 C -3.543590 2.969600 2.445940
 C -4.590850 2.101890 2.753190
 C -5.386480 1.553300 1.739800
 H -5.792610 1.551070 -0.388180
 H -3.883080 3.059960 -0.947620
 H -6.873520 0.745290 3.067740
 Cl -2.597300 3.555490 3.763490
 H -4.759550 1.837410 3.808950
 C -6.483010 0.557150 2.040350
 C -1.090990 3.484040 0.210180
 C -0.147050 4.242950 -0.493560
 C 1.018010 3.614830 -0.945820
 C 1.160980 2.227420 -0.834700
 C 0.221010 1.454420 -0.153870
 C -0.892910 2.110040 0.374650
 H -1.645010 10.055690 -1.795160
 O -0.276900 5.597280 -0.593030
 H -5.212800 -1.094670 2.701300
 H 2.065110 1.738880 -1.229920
 H -8.410810 -2.603940 3.647340
 H -1.628500 1.535650 0.954270
 C 3.294660 3.921740 -1.210160
 C 3.734160 3.990920 0.112050
 C 4.957430 3.429360 0.468200
 C 5.734330 2.758100 -0.482350
 C 5.338150 2.796830 -1.826650
 C 4.118750 3.363290 -2.187930
 H -5.450300 -2.810350 4.052700 
 H 3.074010 4.419330 0.884400
 H 5.269180 3.416930 1.526390
 H -3.491930 -6.974260 2.300740
 H 5.937320 2.306270 -2.609710
 Cl 3.626290 3.261690 -3.835620
 O -2.204730 4.059520 0.750730
 O 2.033880 4.330020 -1.504880
 C -5.996860 -0.922100 1.932540
 C -7.208110 -1.843930 2.221700
 N -7.431700 -2.320840 3.505010
 O -8.062480 -1.988670 1.375210
 C -6.476100 -3.220180 4.154160
 C -7.714260 -5.384360 3.769290
 C -6.516560 -4.659600 3.662140
 C -5.374020 -5.320710 3.163470
 C -5.452010 -6.670670 2.786180
 C -6.658020 -7.358170 2.884970
 C -7.791310 -6.716300 3.375400
 H -8.623720 -4.916620 4.178860
 H -9.070730 -8.298570 3.231300
 H -3.165820 -0.552220 1.886440
 O -4.384990 -7.360240 2.303480
 H -6.704590 -8.414050 2.577810
 O -8.976030 -7.367110 3.494240
 C -4.012770 -3.573760 2.063060
 C -2.952000 -2.659600 2.051750
 C -1.912570 -2.862200 2.969730
 C -1.941450 -3.924480 3.872660
 C -3.040520 -4.780220 3.914770
 C -4.105970 -4.571690 3.034780
 H -4.848490 -3.474480 1.353220
 C -2.987590 -1.405110 1.193230
 H -1.070040 -2.150530 3.004280
 H -1.116320 -4.060470 4.589930
 O -3.104640 -5.765260 4.848360
 H -2.378000 -5.921630 5.475560
 N -1.769880 -1.117670 0.427500
 C -0.601680 -0.639490 1.013300
 O -0.469190 -0.605100 2.217590
 C 0.458820 -0.029670 0.053750
 N 1.817860 -0.392700 0.463510
 C 2.394630 0.097960 1.624030
 O 1.870860 0.934270 2.324500
 C 3.734530 -0.552190 2.011170
 C 3.883000 -0.549130 3.546300
 C 3.003460 -1.593130 4.224710
 O 3.490230 -2.521270 4.825130
 N 1.639280 -1.411240 4.145930
 N 4.858390 0.140410 1.385260
 C 5.232340 -0.118880 0.077300
 O 4.561810 -0.824980 -0.643850 
 C 6.622590 0.384230 -0.373490
 C 6.890180 1.886680 -0.046620
 O 7.083100 2.096640 1.353500
 N 7.625320 -0.586130 0.074690
 C 8.951740 -0.270170 0.315810
 O 9.399000 0.851940 0.269710
 C 9.853980 -1.469240 0.628330
 N 9.893970 -2.420930 -0.481980
 C 10.459320 -1.847070 -1.697300
 C 9.387350 -2.250520 1.872930
 C 9.037770 -1.402330 3.114500
 C 8.493690 -2.312950 4.230930
 C 10.254840 -0.614380 3.629300
 O -7.512410 0.833170 1.092650
 C -4.177530 -1.412760 0.190130
 O -3.951020 -1.634830 -0.980620
 N -5.500310 -1.224640 0.585120
 C -6.742800 -3.213230 5.657530
 O -7.816860 -3.369480 6.192930
 H -1.875270 -1.169440 -0.598110
 H 0.278630 -0.496330 -0.941530
 H 2.456890 -0.903640 -0.172090
 H 3.723200 -1.616880 1.679540
 H 4.936980 -0.791070 3.812920
 H 3.672540 0.463240 3.961110
 H 1.233110 -0.646710 3.561500
 H 1.055090 -2.108330 4.621960
 H 5.439900 0.792760 1.933230
 H 6.584950 0.312340 -1.484020
 H 7.796900 2.228200 -0.600360
 H 8.003000 1.905550 1.523460
 H 7.379450 -1.584820 0.042460
 H 10.879980 -1.072080 0.807480
 H 10.457670 -3.221540 -0.207100
 H 10.487470 -2.612410 -2.504810
 H 9.834680 -1.000430 -2.059040
 H 11.494400 -1.475010 -1.522660
 H 8.497400 -2.857640 1.591270
 H 10.178430 -2.984280 2.150240
 H 8.234550 -0.676830 2.844740
 H 9.251690 -3.060770 4.555610
 H 8.198730 -1.725040 5.129070
 H 7.592310 -2.874650 3.896430
 H 10.624110 0.114530 2.874040
 H 10.002500 -0.033460 4.544860
 H 11.101160 -1.290070 3.886350
 H -8.167890 0.143810 1.155790
 H -6.217220 -1.279300 -0.154990
 C -0.937160 7.752710 -1.473950
 C -0.758490 6.245690 -1.762180
 O 0.264490 6.073170 -2.738440 
 C -0.057420 6.615990 -4.010760
 C -0.115190 8.137290 -3.837880
 C -1.179970 8.494070 -2.798560
 H -1.719880 5.791160 -2.095710
 H -0.752320 9.617570 -4.856350
 O -2.130390 8.006140 -0.725200
 H -0.030350 8.162760 -0.974450
 O -1.082710 9.887650 -2.543390
 H -2.192260 8.241530 -3.191290
 H 0.877410 8.529940 -3.517850
 O -0.512900 8.721250 -5.067390
 C 1.064200 6.214110 -4.979130
 H -1.030270 6.220020 -4.382780
 H 0.952410 6.770960 -5.936790
 H 2.061340 6.470630 -4.552780
 O 0.983840 4.821530 -5.255600
 C -1.664960 6.574690 2.547430
 O -1.736060 6.755960 1.141640
 C -1.945290 8.078080 0.682230
 C -3.273970 8.593190 1.249610
 C -3.303670 8.509390 2.784620
 C -3.003380 7.038350 3.141620
 H -0.433130 8.355860 2.991780
 H -0.280820 7.033690 4.188400
 H -1.565910 5.481770 2.743500
 C -0.406240 7.250830 3.103920
 O -2.986050 6.850920 4.550300
 H -3.812110 6.405920 2.704650
 N -2.278220 9.399970 3.307820
 C -4.671230 8.938090 3.335720
 H -3.436660 9.643770 0.918770
 H -4.100530 7.984210 0.818900
 H -1.103480 8.757640 0.946520
 H 0.505390 6.883800 2.581340
 H 1.576490 4.368780 -4.655590
 H -2.870780 5.912980 4.694700
 H -2.200720 9.279920 4.314990
 H -2.511460 10.376370 3.157150
 H -5.493210 8.298400 2.943490
 H -4.694370 8.867190 4.445900
 H -4.908800 9.990560 3.063580
 O -5.606610 -2.985360 6.328150
 H -5.874510 -3.000770 7.263960
